n,0.05,0.01,avr_type,ar_type
6,0.959183673469,1,,
13,0.836734693878,0.918571428571,,
20,0.792625,0.8104,,
13.0,0.822485207101,0.89349112426,average_n_3_first_n_None,results_MW_40_1000_r21_ears
13.0,0.715976331361,0.834349112426,average_n_3_first_n_None,results_MW_40_1000_r21_ears
40.0,0.6225625,0.66945,average_n_1_first_n_None,results_MW_40_1000_r21_ears
13.0,0.840236686391,0.89349112426,average_n_3_first_n_None,results_MP_40_1000_r21_CAR
13.0,0.763313609467,0.881686390533,average_n_3_first_n_None,results_MP_40_1000_r21_CAR
40.0,0.6438125,0.69250625,average_n_1_first_n_None,results_MP_40_1000_r21_CAR
13.0,0.828698224852,0.905384615385,average_n_3_first_n_None,results_MW_40_1000_r21_ears
40.0,0.64259375,0.71376875,average_n_1_first_n_None,results_MW_rs_40_1000_r21_ears
13.0,0.70724852071,0.816627218935,average_n_3_first_n_None,results_MW_rs_40_1000_r21_ears
66.0,0.60906795225,0.654639577594,average_n_3_first_n_None,wyniki_AR_MP_r21_ears_200T_loo
200.0,0.55839875,0.58353925,average_n_1_first_n_None,wyniki_AR_MP_r21_ears_200T_loo
13.0,0.733727810651,0.828461538462,average_n_3_first_n_None,results_for_clusterisation_ears_or_fz_cz_car_exclude_bad_new_balancer_clusterisation_preanalysed_averager_fix_test_downsampler_random_AR40_1000
40.0,0.63190625,0.70005625,average_n_1_first_n_None,results_MP_40_1000_r21_ears
13.0,0.739940828402,0.828461538462,average_n_3_first_n_None,results_MP_40_1000_r21_ears
7.0,0.959183673469,1.0,average_n_3_first_n_None,results_for_clusterisation_ears_or_fz_cz_car_first_exclude_bad_new_balancer_clusterisation_preanalysed_AR_PATIENTS_20
14.0,0.836734693878,0.918571428571,average_n_3_first_n_None,results_for_clusterisation_ears_or_fz_cz_car_first_exclude_bad_new_balancer_clusterisation_preanalysed_AR_PATIENTS_40
14.0,0.826530612245,0.8725,average_n_3_first_n_None,results_for_clusterisation_ears_or_fz_cz_car_first_exclude_bad_new_balancer_clusterisation_preanalysed_AR_PATIENTS_40_1000
20.0,0.792625,0.8104,average_n_3_first_n_None,results_for_clusterisation_ears_or_fz_cz_car_first_exclude_bad_new_balancer_clusterisation_preanalysed_AR_PATIENTS_60
40.0,0.63128125,0.6794125,average_n_1_first_n_None,results_WS_40_1000_r21_ears
13.0,0.757396449704,0.858195266272,average_n_3_first_n_None,results_WS_40_1000_r21_ears
14.0,0.755357142857,0.821632653061,average_n_3_first_n_None,results_for_clusterisation_ears_or_fz_cz_car_first_exclude_bad_new_balancer_clusterisation_preanalysed_AR_PATIENTS_40_WERONIKA
13.0,0.810650887574,0.887573964497,average_n_3_first_n_None,results_MP_40_1000_r11
13.0,0.739644970414,0.875887573964,average_n_3_first_n_None,results_MP_40_1000_r11_ears
40.0,0.6375,0.69135,average_n_1_first_n_None,results_MP_40_1000_r11_ears
66.0,0.606370523416,0.646386593205,average_n_3_first_n_None,wyniki_AR_MP_r21_ears_200T_2folds
200.0,0.5587775,0.57835075,average_n_1_first_n_None,wyniki_AR_MP_r21_ears_200T_2folds
