id,diagnosis,paradigm,AUC,round,N_avr_targets,N_avr_nontargets
PD_k,CONTROL_ADULT,p300_sl,0.832,1,25,25
AD_k,CONTROL_ADULT,p300_sl,0.731481481481,1,18,18
MP_k,CONTROL_ADULT,p300_sl,0.645833333333,3,12,12
OK_k,CONTROL_ADULT,p300_sl,0.80612244898,1,14,14
MB_k,CONTROL_ADULT,p300_sl,0.817708333333,1,24,24
AK_k,CONTROL_ADULT,p300_sl,0.6704,1,25,25
MD_k,CONTROL_ADULT,p300_sl,0.682098765432,1,18,18
C08,CONTROL_CHILDREN,p300_sl,0.928888888889,4,15,15
C10,CONTROL_CHILDREN,p300_sl,0.826666666667,4,15,15
C09,CONTROL_CHILDREN,p300_sl,0.8275,4,20,20
C05,CONTROL_CHILDREN,p300_sl,0.876543209877,4,18,18
C11,CONTROL_CHILDREN,p300_sl,0.792387543253,4,17,17
C03,CONTROL_CHILDREN,p300_sl,0.604938271605,4,9,9
C07,CONTROL_CHILDREN,p300_sl,0.8515625,4,16,16
C01,CONTROL_CHILDREN,p300_sl,0.893333333333,4,15,15
C02,CONTROL_CHILDREN,p300_sl,0.92243767313,4,19,19
AS,EMCS,p300_sl,0.891975308642,3,18,18
MZ,EMCS,p300_sl,0.685185185185,2,18,18
ML,EMCS,p300_sl,1.0,1,9,9
DR,MCS-,p300_sl,0.7075,3,20,20
DR,MCS-,p300_sl,0.551020408163,1,14,14
WS,MCS-,p300_sl,0.755102040816,1,14,14
DR,MCS-,p300_sl,0.864197530864,2,9,9
WS,MCS-,p300_sl,0.781065088757,2,13,13
JK,MCS-,p300_sl,0.487603305785,3,22,22
JK,MCS-,p300_sl,0.612654320988,2,36,36
MD,MCS+,p300_sl,0.7675,1,20,20
WS,MCS+,p300_sl,0.578512396694,3,11,11
MB,MCS+,p300_sl,0.664819944598,2,19,19
RN,UWS,p300_sl,0.659090909091,1,22,22
MW,UWS,p300_sl,0.694214876033,1,11,11
AS,UWS,p300_sl,0.539930555556,2,24,24
OK_k,CONTROL_ADULT,p300_wz,0.7725,1,20,20
MD_k,CONTROL_ADULT,p300_wz,0.942222222222,1,15,15
PD_k,CONTROL_ADULT,p300_wz,0.968,1,25,25
PR_k,CONTROL_ADULT,p300_wz,0.840277777778,1,24,24
AK_k,CONTROL_ADULT,p300_wz,0.987603305785,1,22,22
AD_k,CONTROL_ADULT,p300_wz,0.852607709751,1,21,21
MB_k,CONTROL_ADULT,p300_wz,0.735,1,20,20
MP_k,CONTROL_ADULT,p300_wz,0.988165680473,3,13,13
C04,CONTROL_CHILDREN,p300_wz,0.629757785467,4,17,17
C10,CONTROL_CHILDREN,p300_wz,0.627218934911,4,13,13
C09,CONTROL_CHILDREN,p300_wz,0.763313609467,4,13,13
C01,CONTROL_CHILDREN,p300_wz,0.7625,4,20,20
C11,CONTROL_CHILDREN,p300_wz,0.78515625,4,16,16
C05,CONTROL_CHILDREN,p300_wz,0.795847750865,4,17,17
C03,CONTROL_CHILDREN,p300_wz,0.609375,4,16,16
C07,CONTROL_CHILDREN,p300_wz,0.984126984127,4,21,21
MZ,EMCS,p300_wz,0.509695290859,2,19,19
ML,EMCS,p300_wz,0.836565096953,1,19,19
AS,EMCS,p300_wz,0.697777777778,3,15,15
MZ,EMCS,p300_wz,0.58,3,20,20
DR,MCS-,p300_wz,0.66049382716,1,18,18
JK,MCS-,p300_wz,0.522727272727,4,22,22
DR,MCS-,p300_wz,0.403214024836,2,37,37
JK,MCS-,p300_wz,0.557851239669,3,22,22
JK,MCS-,p300_wz,0.3936,2,25,25
WS,MCS-,p300_wz,0.714285714286,1,14,14
DR,MCS-,p300_wz,0.556473829201,3,33,33
WS,MCS-,p300_wz,0.739644970414,2,13,13
MB,MCS+,p300_wz,0.404320987654,2,18,18
WS,MCS+,p300_wz,0.284722222222,3,12,12
MD,MCS+,p300_wz,0.548611111111,1,24,24
AS,UWS,p300_wz,0.54820415879,2,23,23
MW,UWS,p300_wz,0.909090909091,3,22,22
JC,UWS,p300_wz,0.5625,4,16,16
STDA1,CONTROL_ADULT,p300_sl_tony,0.8304,4,25,25
JM_k,CONTROL_ADULT,p300_sl_tony,0.752066115702,4,22,22
MP_k,CONTROL_ADULT,p300_sl_tony,0.900826446281,3,11,11
STDA2,CONTROL_ADULT,p300_sl_tony,0.850340136054,4,21,21
C11,CONTROL_CHILDREN,p300_sl_tony,0.8,4,15,15
C10,CONTROL_CHILDREN,p300_sl_tony,0.681660899654,4,17,17
C01,CONTROL_CHILDREN,p300_sl_tony,0.950617283951,4,18,18
C05,CONTROL_CHILDREN,p300_sl_tony,0.828125,4,16,16
C09,CONTROL_CHILDREN,p300_sl_tony,0.847645429363,4,19,19
C07,CONTROL_CHILDREN,p300_sl_tony,0.678004535147,4,21,21
MZ,EMCS,p300_sl_tony,0.933884297521,3,11,11
MZ,EMCS,p300_sl_tony,0.662222222222,2,15,15
AS,EMCS,p300_sl_tony,0.614366729679,3,46,46
JN,EMCS,p300_sl_tony,0.753086419753,3,9,9
MB,EMCS,p300_sl_tony,0.641723356009,3,21,21
DR,MCS-,p300_sl_tony,0.614366729679,3,23,23
JK,MCS-,p300_sl_tony,0.718336483932,4,23,23
JK,MCS-,p300_sl_tony,0.579861111111,2,24,24
WS,MCS-,p300_sl_tony,0.6640625,2,16,16
JK,MCS-,p300_sl_tony,0.63,3,10,10
KP,MCS-,p300_sl_tony,0.645124716553,3,42,42
DR,MCS-,p300_sl_tony,0.53,2,20,20
WS,MCS+,p300_sl_tony,0.408284023669,3,13,13
AS,UWS,p300_sl_tony,0.839319470699,2,23,23
JC,UWS,p300_sl_tony,0.471111111111,3,15,15
MW,UWS,p300_sl_tony,0.600765306122,3,28,28
MP_k,CONTROL_ADULT,p300_cz,0.659722222222,3,12,12
AK_k,CONTROL_ADULT,p300_cz,0.942148760331,1,22,22
MB_k,CONTROL_ADULT,p300_cz,0.79,1,20,20
OK_k,CONTROL_ADULT,p300_cz,0.698347107438,1,22,22
AD_k,CONTROL_ADULT,p300_cz,0.754132231405,1,22,22
PR_k,CONTROL_ADULT,p300_cz,0.663223140496,1,22,22
MD_k,CONTROL_ADULT,p300_cz,0.77479338843,1,22,22
C03,CONTROL_CHILDREN,p300_cz,0.935185185185,4,18,18
C07,CONTROL_CHILDREN,p300_cz,0.825396825397,4,21,21
C01,CONTROL_CHILDREN,p300_cz,0.84,4,20,20
C02,CONTROL_CHILDREN,p300_cz,0.895691609977,4,21,21
C05,CONTROL_CHILDREN,p300_cz,0.733333333333,4,15,15
C04,CONTROL_CHILDREN,p300_cz,0.8704,4,25,25
C10,CONTROL_CHILDREN,p300_cz,0.789256198347,4,22,22
C11,CONTROL_CHILDREN,p300_cz,0.7265625,4,16,16
C09,CONTROL_CHILDREN,p300_cz,0.767485822306,4,23,23
JN,EMCS,p300_cz,0.566115702479,3,22,22
MZ,EMCS,p300_cz,0.458333333333,3,12,12
MZ,EMCS,p300_cz,0.834710743802,2,22,22
ML,EMCS,p300_cz,0.858131487889,1,17,17
AS,EMCS,p300_cz,0.727891156463,3,21,21
MB,EMCS,p300_cz,0.769230769231,3,13,13
KP,MCS-,p300_cz,0.83024691358,3,18,18
JK,MCS-,p300_cz,0.680529300567,3,23,23
DR,MCS-,p300_cz,0.51652892562,3,22,22
JK,MCS-,p300_cz,0.654064272212,4,23,23
WS,MCS-,p300_cz,0.78515625,1,16,16
DR,MCS-,p300_cz,0.550173010381,1,17,17
DR,MCS-,p300_cz,0.62109375,2,16,16
JK,MCS-,p300_cz,0.6032,2,25,25
WS,MCS-,p300_cz,0.685950413223,2,11,11
WS,MCS+,p300_cz,0.776859504132,3,11,11
MD,MCS+,p300_cz,0.677083333333,1,24,24
MB,MCS+,p300_cz,0.753462603878,2,19,19
MW,UWS,p300_cz,0.718089990817,3,33,33
JC,UWS,p300_cz,0.460920379839,4,37,37
MW,UWS,p300_cz,0.6875,1,20,20
JS,UWS,p300_cz,0.384948096886,1,34,34
RN,UWS,p300_cz,0.43,1,10,10
