auc90,auc95,auc99,n_targets,n_nontargets,avr_type,ar_type,pipeline_type,n_patients
0.680769230769,0.739644970414,0.828431952663,13.0,13.0,average_n_1_first_n_13,wyniki_AR_MP_r21_ears_200T_2folds,downsample,1000
0.69,0.75,0.84,10.0,10.0,average_n_1_first_n_10,wyniki_AR_MP_r21_ears_200T_2folds,downsample,1000
0.685950413223,0.743801652893,0.81826446281,11.0,11.0,average_n_1_first_n_11,wyniki_AR_MP_r21_ears_200T_2folds,downsample,1000
0.677430555556,0.726041666667,0.819479166667,12.0,12.0,average_n_1_first_n_12,wyniki_AR_MP_r21_ears_200T_2folds,downsample,1000
0.673724489796,0.719387755102,0.791020408163,14.0,14.0,average_n_1_first_n_14,wyniki_AR_MP_r21_ears_200T_2folds,downsample,1000
0.666666666667,0.697777777778,0.780088888889,15.0,15.0,average_n_1_first_n_15,wyniki_AR_MP_r21_ears_200T_2folds,downsample,1000
0.6603515625,0.69931640625,0.781328125,16.0,16.0,average_n_1_first_n_16,wyniki_AR_MP_r21_ears_200T_2folds,downsample,1000
0.657612456747,0.709342560554,0.787214532872,17.0,17.0,average_n_1_first_n_17,wyniki_AR_MP_r21_ears_200T_2folds,downsample,1000
0.654320987654,0.694444444444,0.762438271605,18.0,18.0,average_n_1_first_n_18,wyniki_AR_MP_r21_ears_200T_2folds,downsample,1000
0.645429362881,0.695290858726,0.745207756233,19.0,19.0,average_n_1_first_n_19,wyniki_AR_MP_r21_ears_200T_2folds,downsample,1000
0.6475,0.69,0.745025,20.0,20.0,average_n_1_first_n_20,wyniki_AR_MP_r21_ears_200T_2folds,downsample,1000
0.639455782313,0.67806122449,0.72335600907,21.0,21.0,average_n_1_first_n_21,wyniki_AR_MP_r21_ears_200T_2folds,downsample,1000
0.642561983471,0.675671487603,0.727303719008,22.0,22.0,average_n_1_first_n_22,wyniki_AR_MP_r21_ears_200T_2folds,downsample,1000
0.635160680529,0.664461247637,0.729697542533,23.0,23.0,average_n_1_first_n_23,wyniki_AR_MP_r21_ears_200T_2folds,downsample,1000
0.630295138889,0.656336805556,0.725894097222,24.0,24.0,average_n_1_first_n_24,wyniki_AR_MP_r21_ears_200T_2folds,downsample,1000
0.63128,0.6624,0.72248,25.0,25.0,average_n_1_first_n_25,wyniki_AR_MP_r21_ears_200T_2folds,downsample,1000
0.624408284024,0.658357988166,0.727869822485,26.0,26.0,average_n_1_first_n_26,wyniki_AR_MP_r21_ears_200T_2folds,downsample,1000
0.615912208505,0.656412894376,0.717475994513,27.0,27.0,average_n_1_first_n_27,wyniki_AR_MP_r21_ears_200T_2folds,downsample,1000
0.617346938776,0.651785714286,0.714929846939,28.0,28.0,average_n_1_first_n_28,wyniki_AR_MP_r21_ears_200T_2folds,downsample,1000
0.617122473246,0.655172413793,0.715850178359,29.0,29.0,average_n_1_first_n_29,wyniki_AR_MP_r21_ears_200T_2folds,downsample,1000
0.616166666667,0.650111111111,0.724455555556,30.0,30.0,average_n_1_first_n_30,wyniki_AR_MP_r21_ears_200T_2folds,downsample,1000
0.608844953174,0.649323621228,0.719609781478,31.0,31.0,average_n_1_first_n_31,wyniki_AR_MP_r21_ears_200T_2folds,downsample,1000
0.61435546875,0.6474609375,0.717778320312,32.0,32.0,average_n_1_first_n_32,wyniki_AR_MP_r21_ears_200T_2folds,downsample,1000
0.611662075298,0.638659320478,0.709834710744,33.0,33.0,average_n_1_first_n_33,wyniki_AR_MP_r21_ears_200T_2folds,downsample,1000
0.615051903114,0.640138408304,0.69901384083,34.0,34.0,average_n_1_first_n_34,wyniki_AR_MP_r21_ears_200T_2folds,downsample,1000
0.61306122449,0.645408163265,0.708191836735,35.0,35.0,average_n_1_first_n_35,wyniki_AR_MP_r21_ears_200T_2folds,downsample,1000
0.611882716049,0.642785493827,0.702962962963,36.0,36.0,average_n_1_first_n_36,wyniki_AR_MP_r21_ears_200T_2folds,downsample,1000
0.602373995617,0.642823228634,0.705635500365,37.0,37.0,average_n_1_first_n_37,wyniki_AR_MP_r21_ears_200T_2folds,downsample,1000
0.600450138504,0.639923822715,0.704993074792,38.0,38.0,average_n_1_first_n_38,wyniki_AR_MP_r21_ears_200T_2folds,downsample,1000
0.607199211045,0.629569362262,0.679237343853,39.0,39.0,average_n_1_first_n_39,wyniki_AR_MP_r21_ears_200T_2folds,downsample,1000
0.6075625,0.628140625,0.67813125,40.0,40.0,average_n_1_first_n_40,wyniki_AR_MP_r21_ears_200T_2folds,downsample,1000
0.598631766805,0.630889351576,0.679390243902,41.0,41.0,average_n_1_first_n_41,wyniki_AR_MP_r21_ears_200T_2folds,downsample,1000
0.600085034014,0.62641723356,0.676332199546,42.0,42.0,average_n_1_first_n_42,wyniki_AR_MP_r21_ears_200T_2folds,downsample,1000
0.601406165495,0.627366143862,0.663683071931,43.0,43.0,average_n_1_first_n_43,wyniki_AR_MP_r21_ears_200T_2folds,downsample,1000
0.597908057851,0.617058367769,0.666869834711,44.0,44.0,average_n_1_first_n_44,wyniki_AR_MP_r21_ears_200T_2folds,downsample,1000
0.596098765432,0.617074074074,0.658819753086,45.0,45.0,average_n_1_first_n_45,wyniki_AR_MP_r21_ears_200T_2folds,downsample,1000
0.59643194707,0.616753308129,0.663095463138,46.0,46.0,average_n_1_first_n_46,wyniki_AR_MP_r21_ears_200T_2folds,downsample,1000
0.58897691263,0.613399728384,0.668696242644,47.0,47.0,average_n_1_first_n_47,wyniki_AR_MP_r21_ears_200T_2folds,downsample,1000
0.589453125,0.612413194444,0.660611979167,48.0,48.0,average_n_1_first_n_48,wyniki_AR_MP_r21_ears_200T_2folds,downsample,1000
0.592711370262,0.615618492295,0.658084131612,49.0,49.0,average_n_1_first_n_49,wyniki_AR_MP_r21_ears_200T_2folds,downsample,1000
0.5924,0.61444,0.662412,50.0,50.0,average_n_1_first_n_50,wyniki_AR_MP_r21_ears_200T_2folds,downsample,1000
0.592887351019,0.612456747405,0.653644752018,51.0,51.0,average_n_1_first_n_51,wyniki_AR_MP_r21_ears_200T_2folds,downsample,1000
0.590809911243,0.613535502959,0.664948224852,52.0,52.0,average_n_1_first_n_52,wyniki_AR_MP_r21_ears_200T_2folds,downsample,1000
0.587041651833,0.611249555002,0.647604129583,53.0,53.0,average_n_1_first_n_53,wyniki_AR_MP_r21_ears_200T_2folds,downsample,1000
0.589077503429,0.611522633745,0.648851165981,54.0,54.0,average_n_1_first_n_54,wyniki_AR_MP_r21_ears_200T_2folds,downsample,1000
0.588132231405,0.61226446281,0.64761322314,55.0,55.0,average_n_1_first_n_55,wyniki_AR_MP_r21_ears_200T_2folds,downsample,1000
0.586128826531,0.611320153061,0.647024872449,56.0,56.0,average_n_1_first_n_56,wyniki_AR_MP_r21_ears_200T_2folds,downsample,1000
0.583871960603,0.609433671899,0.646660510926,57.0,57.0,average_n_1_first_n_57,wyniki_AR_MP_r21_ears_200T_2folds,downsample,1000
0.583977407848,0.608531510107,0.647446492271,58.0,58.0,average_n_1_first_n_58,wyniki_AR_MP_r21_ears_200T_2folds,downsample,1000
0.581758115484,0.607885665039,0.642918701523,59.0,59.0,average_n_1_first_n_59,wyniki_AR_MP_r21_ears_200T_2folds,downsample,1000
0.582930555556,0.604166666667,0.638941666667,60.0,60.0,average_n_1_first_n_60,wyniki_AR_MP_r21_ears_200T_2folds,downsample,1000
0.58427841978,0.608774522978,0.647428110723,61.0,61.0,average_n_1_first_n_61,wyniki_AR_MP_r21_ears_200T_2folds,downsample,1000
0.582726326743,0.60564516129,0.644393860562,62.0,62.0,average_n_1_first_n_62,wyniki_AR_MP_r21_ears_200T_2folds,downsample,1000
0.583320735702,0.599697656841,0.650317460317,63.0,63.0,average_n_1_first_n_63,wyniki_AR_MP_r21_ears_200T_2folds,downsample,1000
0.580395507813,0.604797363281,0.649431152344,64.0,64.0,average_n_1_first_n_64,wyniki_AR_MP_r21_ears_200T_2folds,downsample,1000
0.578721893491,0.597881656805,0.655155029586,65.0,65.0,average_n_1_first_n_65,wyniki_AR_MP_r21_ears_200T_2folds,downsample,1000
0.57922405877,0.596659779614,0.64900137741,66.0,66.0,average_n_1_first_n_66,wyniki_AR_MP_r21_ears_200T_2folds,downsample,1000
0.580775228336,0.601503675652,0.641581644019,67.0,67.0,average_n_1_first_n_67,wyniki_AR_MP_r21_ears_200T_2folds,downsample,1000
0.578287197232,0.596042387543,0.637201557093,68.0,68.0,average_n_1_first_n_68,wyniki_AR_MP_r21_ears_200T_2folds,downsample,1000
0.576601554295,0.598508716656,0.638124343625,69.0,69.0,average_n_1_first_n_69,wyniki_AR_MP_r21_ears_200T_2folds,downsample,1000
0.575653061224,0.600265306122,0.637167346939,70.0,70.0,average_n_1_first_n_70,wyniki_AR_MP_r21_ears_200T_2folds,downsample,1000
0.577107716723,0.597520333267,0.627072009522,71.0,71.0,average_n_1_first_n_71,wyniki_AR_MP_r21_ears_200T_2folds,downsample,1000
0.576601080247,0.598398919753,0.627135416667,72.0,72.0,average_n_1_first_n_72,wyniki_AR_MP_r21_ears_200T_2folds,downsample,1000
0.571045224245,0.597175830362,0.629615312441,73.0,73.0,average_n_1_first_n_73,wyniki_AR_MP_r21_ears_200T_2folds,downsample,1000
0.573484295106,0.597717311907,0.636062819576,74.0,74.0,average_n_1_first_n_74,wyniki_AR_MP_r21_ears_200T_2folds,downsample,1000
0.576355555556,0.597715555556,0.634672,75.0,75.0,average_n_1_first_n_75,wyniki_AR_MP_r21_ears_200T_2folds,downsample,1000
0.576177285319,0.59800900277,0.634747229917,76.0,76.0,average_n_1_first_n_76,wyniki_AR_MP_r21_ears_200T_2folds,downsample,1000
0.578006409175,0.597099004891,0.636038117726,77.0,77.0,average_n_1_first_n_77,wyniki_AR_MP_r21_ears_200T_2folds,downsample,1000
0.575147928994,0.597674227482,0.636755424063,78.0,78.0,average_n_1_first_n_78,wyniki_AR_MP_r21_ears_200T_2folds,downsample,1000
0.578929658709,0.596699246916,0.635797147893,79.0,79.0,average_n_1_first_n_79,wyniki_AR_MP_r21_ears_200T_2folds,downsample,1000
0.575953125,0.59625,0.6332875,80.0,80.0,average_n_1_first_n_80,wyniki_AR_MP_r21_ears_200T_2folds,downsample,1000
0.574165523548,0.595953360768,0.628262459991,81.0,81.0,average_n_1_first_n_81,wyniki_AR_MP_r21_ears_200T_2folds,downsample,1000
0.574360499703,0.594824509221,0.628657049375,82.0,82.0,average_n_1_first_n_82,wyniki_AR_MP_r21_ears_200T_2folds,downsample,1000
0.574277834228,0.591849325011,0.628854695892,83.0,83.0,average_n_1_first_n_83,wyniki_AR_MP_r21_ears_200T_2folds,downsample,1000
0.571428571429,0.593402777778,0.623759920635,84.0,84.0,average_n_1_first_n_84,wyniki_AR_MP_r21_ears_200T_2folds,downsample,1000
0.57324567474,0.593107266436,0.622423529412,85.0,85.0,average_n_1_first_n_85,wyniki_AR_MP_r21_ears_200T_2folds,downsample,1000
0.57454029205,0.591535965387,0.626963223364,86.0,86.0,average_n_1_first_n_86,wyniki_AR_MP_r21_ears_200T_2folds,downsample,1000
0.573734971595,0.592423041353,0.626376007399,87.0,87.0,average_n_1_first_n_87,wyniki_AR_MP_r21_ears_200T_2folds,downsample,1000
0.571603822314,0.591180268595,0.627490960744,88.0,88.0,average_n_1_first_n_88,wyniki_AR_MP_r21_ears_200T_2folds,downsample,1000
0.576707486428,0.588940790304,0.619117535665,89.0,89.0,average_n_1_first_n_89,wyniki_AR_MP_r21_ears_200T_2folds,downsample,1000
0.575086419753,0.591734567901,0.614620987654,90.0,90.0,average_n_1_first_n_90,wyniki_AR_MP_r21_ears_200T_2folds,downsample,1000
0.571984059896,0.590991426156,0.615396691221,91.0,91.0,average_n_1_first_n_91,wyniki_AR_MP_r21_ears_200T_2folds,downsample,1000
0.569624291115,0.58991020794,0.615080340265,92.0,92.0,average_n_1_first_n_92,wyniki_AR_MP_r21_ears_200T_2folds,downsample,1000
0.570054341542,0.586096658573,0.620934212048,93.0,93.0,average_n_1_first_n_93,wyniki_AR_MP_r21_ears_200T_2folds,downsample,1000
0.567451335446,0.585332729742,0.620881620643,94.0,94.0,average_n_1_first_n_94,wyniki_AR_MP_r21_ears_200T_2folds,downsample,1000
0.569119113573,0.584897506925,0.619849307479,95.0,95.0,average_n_1_first_n_95,wyniki_AR_MP_r21_ears_200T_2folds,downsample,1000
0.570225694444,0.583485243056,0.617664930556,96.0,96.0,average_n_1_first_n_96,wyniki_AR_MP_r21_ears_200T_2folds,downsample,1000
0.566744606228,0.584339462217,0.62249654586,97.0,97.0,average_n_1_first_n_97,wyniki_AR_MP_r21_ears_200T_2folds,downsample,1000
0.566763848397,0.582981049563,0.617360474802,98.0,98.0,average_n_1_first_n_98,wyniki_AR_MP_r21_ears_200T_2folds,downsample,1000
0.564564840322,0.580200999898,0.61382103867,99.0,99.0,average_n_1_first_n_99,wyniki_AR_MP_r21_ears_200T_2folds,downsample,1000
0.56454,0.580505,0.614211,100.0,100.0,average_n_1_first_n_100,wyniki_AR_MP_r21_ears_200T_2folds,downsample,1000
